[
  {
    "id": 1,
    "title": {
      "first": "'Always ON'",
      "second": "Alarm Monitoring",
      "third" :"DiretWireless is a dedicated, wireless communicatins solution for alarm transmission only. It reports all alarm, operational status, and event messages reliably, securely, and instantly to the alarm monitoring service provider any time and any place an alarm event occurs. DirectWireless not only permanently connects your alarm to your monitoring service provider, but also regularly checks and tests the status of your alarm interface every 90 seconds or 24hours depending on the service plan chosen.",
      "fourth" : "This helps to detect any breaks between your alarm system and your central monitoring station. In the event of an actual incident, alarm messages are instantly transmitted across the DirectWireless network and acknowledged by your central monitoring station ensuring an immediate response."
    },

    "image": "/img/slid/background01.png"
  },
  {
    "id": 2,
    "title": {
      "first": "A Network built specifically for",
      "second": "alarm monitoring",
      "third" :"Unlike traditional dialler based monitoring across regular telephone (PSTN), radio or mobile phone services, DirectWireless does not suffer from network congestion or in any way share the public telephone network.",
      "fourth":"This means that it does not share its network with systems such as traditional telephones, faxes or ADSL/DSL services and therefore can not be tampered with by hackers over PSTN internet type connections. DirectWireless is a totally secure IP wireless network dedicated for alarm monitoring only. There is no public access to the DirectWireless network and best of all, there are no phone lines to cut."
    },
    "image": "/img/slid/03.jpg"
  },
  {
    "id": 3,
    "title": {
      "first": "Designed to meet",
      "second": " the highest standards",
      "third":"Direct Wireless is designed to meet AS2201.5-1992 Class 2, 3 and 4 alarm transmission systems, and interfaces to any standard alarm control panel,",
      "fourth":"the product is perfect for any installation and provides a high level of wireless security."
    },
    "image": "/img/slid/02.jpg"
  }
]
